<?xml version="1.0" encoding="utf-8"?>
<!-- Generator: Adobe Illustrator 22.1.0, SVG Export Plug-In . SVG Version: 6.00 Build 0)  -->
<svg version="1.1" id="Layer_1" xmlns="http://www.w3.org/2000/svg" xmlns:xlink="http://www.w3.org/1999/xlink" x="0px" y="0px"
	 viewBox="0 0 50 29" style="enable-background:new 0 0 50 29;" xml:space="preserve">
<style type="text/css">
	.st0{fill:#FFFFFF;fill-opacity:0.8;}
	.st1{fill:#FFFFFF;}
	.st2{fill:#FFFFFF;fill-opacity:0.6;}
</style>
<title>Group 16</title>
<desc>Created with Sketch.</desc>
<g id="Page-1">
	<g id="Chapter-UX_x26_CRO-Copy" transform="translate(-865.000000, -1000.000000)">
		<g id="Group-16" transform="translate(865.000000, 1000.000000)">
			<path id="Rectangle" class="st0" d="M19,17c-1.3-0.7-2-1.5-2-2.5s0.7-1.8,2-2.5h17c1.3,0.7,2,1.5,2,2.5s-0.7,1.8-2,2.5H19z"/>
			<path id="Path" class="st1" d="M0.7,16.2l11.9,12.1c0.5,0.5,1.1,0.7,1.7,0.7c0.6,0,1.2-0.2,1.7-0.7c0.9-0.9,0.9-2.4,0-3.3l-8-8.1
				h12.7c1.3,0,2.3-1.1,2.3-2.4s-1-2.4-2.3-2.4H7.9l8-8.1c0.9-0.9,0.9-2.4,0-3.3c-0.9-0.9-2.4-0.9-3.3,0L0.7,12.8
				C-0.2,13.8-0.2,15.2,0.7,16.2z"/>
			<circle id="Oval" class="st2" cx="47.5" cy="14.5" r="2.5"/>
		</g>
	</g>
</g>
</svg>
