<?xml version="1.0" encoding="utf-8"?>
<!-- Generator: Adobe Illustrator 22.1.0, SVG Export Plug-In . SVG Version: 6.00 Build 0)  -->
<svg version="1.1" id="Layer_1" xmlns="http://www.w3.org/2000/svg" xmlns:xlink="http://www.w3.org/1999/xlink" x="0px" y="0px"
	 viewBox="0 0 17 10" style="enable-background:new 0 0 17 10;" xml:space="preserve">
<style type="text/css">
	.st0{opacity:0.8;fill:#E80269;enable-background:new    ;}
	.st1{fill:#E80269;}
	.st2{opacity:0.6;fill:#E80269;enable-background:new    ;}
</style>
<title>Group 13</title>
<desc>Created with Sketch.</desc>
<g id="_x30_2---Services">
	<g id="_x30_2---Services-_x2F_-Chapter-UX-_x26_-CRO" transform="translate(-1610.000000, -3651.000000)">
		<g id="Cases" transform="translate(276.000000, 2734.000000)">
			<g id="Group" transform="translate(0.000000, 898.000000)">
				<g id="Group-6">
					<g id="Group-4" transform="translate(1255.000000, 0.000000)">
						<g id="Group-11">
							<g id="Group-13" transform="translate(79.000000, 19.360000)">
								<path id="Rectangle" class="st0" d="M6.6,5.4C6.1,5.2,5.9,5,5.9,4.6s0.2-0.6,0.6-0.8H12c0.4,0.2,0.6,0.5,0.6,0.8
									S12.4,5.2,12,5.4H6.6z"/>
								<path id="Path" class="st1" d="M0.2,5.2L4,9.1c0.1,0.1,0.3,0.2,0.5,0.2c0.2,0,0.4-0.1,0.5-0.2c0.3-0.3,0.3-0.8,0-1.1
									L2.5,5.4h4.1c0.4,0,0.7-0.3,0.7-0.8c0-0.4-0.3-0.8-0.7-0.8H2.5l2.5-2.6c0.3-0.3,0.3-0.8,0-1.1C4.8-0.1,4.3-0.1,4,0.2
									L0.2,4.1C-0.1,4.4-0.1,4.9,0.2,5.2z"/>
								<circle id="Oval" class="st2" cx="15.6" cy="4.6" r="1"/>
							</g>
						</g>
					</g>
				</g>
			</g>
		</g>
	</g>
</g>
</svg>
