<?xml version="1.0" encoding="utf-8"?>
<!-- Generator: Adobe Illustrator 22.1.0, SVG Export Plug-In . SVG Version: 6.00 Build 0)  -->
<svg version="1.1" id="Layer_1" xmlns="http://www.w3.org/2000/svg" xmlns:xlink="http://www.w3.org/1999/xlink" x="0px" y="0px"
	 viewBox="0 0 22 18.9" style="enable-background:new 0 0 22 18.9;" xml:space="preserve">
<path d="M5,8.1l6-5.4l6,5.4v0.8v8h-3H8H5V8.1z M11,0L0,9.9h3v9h7h2h7v-9h3L11,0z"/>
</svg>
