<?xml version="1.0" standalone="no"?>
<!DOCTYPE svg PUBLIC "-//W3C//DTD SVG 20010904//EN"
 "http://www.w3.org/TR/2001/REC-SVG-20010904/DTD/svg10.dtd">
<svg version="1.0" xmlns="http://www.w3.org/2000/svg"
 width="700.000000pt" height="700.000000pt" viewBox="0 0 700.000000 700.000000"
 preserveAspectRatio="xMidYMid meet">
<metadata>
Created by potrace 1.11, written by Peter Selinger 2001-2013
</metadata>
<g transform="translate(0.000000,700.000000) scale(0.100000,-0.100000)"
fill="#000000" stroke="none">
<path d="M1008 6834 c-32 -7 -90 -30 -130 -50 -325 -163 -442 -567 -256 -882
77 -132 240 -252 389 -287 76 -17 256 -20 331 -4 112 24 236 95 321 183 181
189 223 475 105 712 -81 163 -251 296 -426 333 -72 15 -264 12 -334 -5z"/>
<path d="M2745 6832 c-61 -5 -164 -38 -228 -74 -253 -142 -378 -426 -307 -702
54 -212 197 -365 417 -449 l58 -22 1180 -6 c1257 -6 1224 -5 1370 -54 93 -32
153 -82 195 -166 23 -44 55 -167 64 -244 11 -96 7 -3196 -4 -3260 -25 -137
-65 -228 -127 -287 -84 -81 -283 -143 -508 -156 -60 -4 -733 -7 -1495 -7
l-1385 0 -104 23 c-175 38 -256 94 -307 209 -57 128 -66 228 -66 680 0 378 3
436 32 555 46 190 124 262 335 311 87 20 120 21 910 24 451 2 1023 4 1270 6
l450 2 80 27 c192 66 342 217 407 413 33 101 33 269 -1 373 -62 192 -214 345
-405 410 l-81 27 -1245 0 c-685 0 -1288 -4 -1340 -8 -870 -72 -1439 -542
-1611 -1329 -48 -222 -52 -270 -54 -773 -4 -616 12 -771 107 -1062 138 -423
410 -743 793 -933 167 -83 280 -121 475 -160 162 -32 274 -45 430 -51 137 -4
2538 -4 2740 1 1022 23 1686 481 1899 1313 70 271 66 148 66 2017 0 1781 1
1749 -46 1980 -97 477 -337 846 -706 1084 -253 163 -568 257 -953 285 -106 7
-2215 11 -2305 3z"/>
</g>
</svg>
